lab8/2/sequence_tb.vcd
$date
	Sat Oct  5 10:12:33 2024
$end
$version
	Icarus Verilog
$end
$timescale
	1ns
$end
$scope module sequence_tb $end
$var wire 1 ! z $end
$var wire 2 " state [1:0] $end
$var reg 1 # clk $end
$var reg 1 $ w $end
$scope module seq $end
$var wire 1 # clk $end
$var wire 1 % d0 $end
$var wire 1 & d1 $end
$var wire 1 $ w $end
$var wire 1 ! z $end
$var wire 2 ' state [1:0] $end
$scope module ff1 $end
$var wire 1 # clk $end
$var wire 1 & d $end
$var reg 1 ( q $end
$upscope $end
$scope module ff2 $end
$var wire 1 # clk $end
$var wire 1 % d $end
$var reg 1 ) q $end
$upscope $end
$upscope $end
$upscope $end
$enddefinitions $end
#0
$dumpvars
x)
x(
bx '
x&
0%
0$
0#
bx "
x!
$end
#10
0&
0!
bx0 "
bx0 '
0)
1#
#20
0#
#30
1)
b1 "
b1 '
0(
1%
1$
1#
#40
1&
0%
0$
0#
#50
b11 "
b11 '
1(
1&
1%
1$
1#
#60
1!
0%
0$
0#
#70
0!
1%
1$
1#
#80
1!
0%
0$
0#
#90
0!
1%
1$
1#
